{
  "SettingsPrinter": {
    "UserPrinter": [
      {
        "User": "03 Alexander Fuchs",
        "Printer": "Microsoft Print to PDF"
      },
      {
        "User": "Natalia Serow",
        "Printer": "Fax"
      },
      {
        "User": "Will Elena",
        "Printer": "Fax"
      },
      {
        "User": "02 Alexander Hohl",
        "Printer": "Fax"
      },
      {
        "User": "Swetlana Jabs",
        "Printer": "Fax"
      },
      {
        "User": "Violeta Kasiridou",
        "Printer": "Microsoft Print to PDF"
      },
      {
        "User": "Lager Retour",
        "Printer": "Fax"
      },
      {
        "User": "10 Olga Nurnberg",
        "Printer": "Fax"
      }
    ],
    "PathTemplateLabelDeutschePost": "C:\\Users\\Colibo\\source\\repos\\LabelPrint\\LabelPrint\\bin\\Debug\\templates\\template.docx",
    "PathTemplateInvoiceDeutschePost": "C:\\Users\\Colibo\\Desktop\\template.docx"
  },
  "GeneralSettings": {
    "TimerInterval": 60000,
    "TimeoutRequest": 5000,
    "JsonURL": "https://mv3.colibo.de/sales/printer/deutsche-post-orders"
  },
  "SettingsAccount": {
    "DeutschePostAccount": {
      "PARTNER_ID": "APHMV",
      "SCHLUESSEL_DPWN_MARKTPLATZ": "28PwuxGYAYeHqImJciYI5QtuQUcjuIme",
      "KEY_PHASE": "1",
      "EMail": "pcf_00062@zq4nnzgbnbvt3.webpage.t-com.de",
      "Password": "HyylcI4V2U"
    },
    "DhlAccount": {
      "ApplicationID": "mauve_colibo_de_2",
      "Token": "FV9RclDaTeebN8ell7o0nNTHlAeE4j",
      "User": "beilmann",
      "Signature": "8P=*8D$Ztq)M",
      "AccountNumber": "6233977010"
    }
  },
  "WorkingSettings": {
    "deliveryName": [ "Deutsche post" ],
    "userWork": [ "Violeta Kasiridou" ]
  },
  "SettingsData": {
    "DeutschePostData": {
      "ProductCode": 9861,
      "PriceForCode": 45,
      "TrakingNrUrl": "https://mv3.colibo.de/sales/printer/update-tracking-number"
    }
  }
}
